0sec	1Estado	2agentePagador	3FechaInicio	4FechaFIN	5Corresponsal	6Remitente	7Beneficiario	8CodigoGiro	9Transferncia	valor
1	N		06/21/2021	07/21/2021	123			2211038075	533149
2	N		06/21/2021	07/21/2021	123					VALOR
3	N		06/21/2021	07/21/2021	123				533149